...................
----------------------------------------------------------------------
Ran 19 tests in 0.061s

OK
Name             Stmts   Miss Branch BrPart  Cover   Missing
------------------------------------------------------------
Collatz.py          58      0     16      0   100%
TestCollatz.py      81      0      0      0   100%
------------------------------------------------------------
TOTAL              139      0     16      0   100%
